<?xml version="1.0" encoding="UTF-8" standalone="no"?>
<svg
   xmlns:dc="http://purl.org/dc/elements/1.1/"
   xmlns:cc="http://creativecommons.org/ns#"
   xmlns:rdf="http://www.w3.org/1999/02/22-rdf-syntax-ns#"
   xmlns:svg="http://www.w3.org/2000/svg"
   xmlns="http://www.w3.org/2000/svg"
   viewBox="0 0 3686.7732 2457.8667"
   height="2457.8667"
   width="3686.7732"
   xml:space="preserve"
   id="svg2"
   version="1.1"><metadata
     id="metadata8"><rdf:RDF><cc:Work
         rdf:about=""><dc:format>image/svg+xml</dc:format><dc:type
           rdf:resource="http://purl.org/dc/dcmitype/StillImage" /></cc:Work></rdf:RDF></metadata><defs
     id="defs6" /><g
     transform="matrix(1.3333333,0,0,-1.3333333,0,2457.8667)"
     id="g10"><path
       id="path12"
       style="fill:#110f0d;fill-opacity:1;fill-rule:nonzero;stroke:none"
       d="m 1549.116,1127.986 h -347.26 v -69.452 h 347.26 z" /><g
       transform="translate(1618.5668,989.0815)"
       id="g14"><path
         id="path16"
         style="fill:#110f0d;fill-opacity:1;fill-rule:nonzero;stroke:none"
         d="M 0,0 H -416.711 V -69.452 H 0 v -208.355 h -486.163 v 69.452 h 416.712 v 69.452 H -486.163 V 208.356 H 0 Z m -632.012,-423.656 h 777.861 v 777.861 h -777.861 z" /></g></g></svg>